function sum(a, b){
    console.log( a + b);
    return a + b;
}

function sub(a, b){
    console.log( a - b);
}


function multiply(a, b){
    console.log( a * b);
}

var result = sum(45,32);
console.log('result is '+result);

var name={
    firstname:'isha',
    secondname:'khakhar',
    location:{
        firstadd:'k',
        secondadd: 'b'
    },
    phone:[
        {
            mobile:34251,
            extension:040
        }
    ]
}
console.log(name.phone[0].mobile);